Chapter 4 Creating Some Basic Plots | STAT 362 R for Data Science
…
Remark: different bin widths will give you histograms with different looks.

4.5 Box Plot

Let’s take a look at another dataset ToothGrowth. In particular, supp is a factor.

as_tibble(ToothGrowth)
## # A tibble: 60 x 3
##      len supp   dose
##    <dbl> <fct> <dbl>
##  1   4.2 VC      0.5
##  2  11.5 VC      0.5
##  3   7.3 VC      0.5
##  4   5.8 VC      0.5
##  5   6.4 VC      0.5
##  6  10   VC      0.5
##  7  11.2 VC      0.5
##  8  11.2 VC      0.5
##  9   5.2 VC      0.5
## 10   7   VC      0.5
## # ... with 50 more rows
…
