Chapter 12 k-means Clustering | STAT 362 R for Data Science
…
For mixed data (numeric + categorical features): can use \(k\)-prototypes. It integrates the \(k\)-means and \(k\)-modes algorithms using a combined dissimilarity measure.

R package: clustMixType

12.2 Applications

12.2.1 Cluster Analysis

The Mall_Customers.csv (in onQ) contains the gender, age, annual income and spending score of some customers.

mall <- read_csv("C:/Queens Teaching/Teaching/STAT 362 W23 R for data science/datasets/Mall_Customers.csv")

mall
## # A tibble: 200 × 5
##    CustomerID Gender   Age `Annual Income (k$)` `Spending Score (1-100)`
##         <dbl> <chr>  <dbl>                <dbl>                    <dbl>
##  1          1 Male      19                   15                       39
##  2          2 Male      21                   15                       81
##  3          3 Female    20                   16                        6
##  4          4 Female    23                   16                       77
##  5          5 Female    31                   17                       40
##  6          6 Female    22                   17                       76
##  7          7 Female    35                   18                        6
##  8          8 Female    23                   18                       94
##  9          9 Male      64                   19                        3
## 10         10 Female    30                   19                       72
## # … with 190 more rows
…
