Chapter 16 Neural Networks | STAT 362 R for Data Science
…
Description of the data:

Concrete is the most important material in civil engineering. The
concrete compressive strength is a highly nonlinear function of age and
ingredients. These ingredients include cement, blast furnace slag, fly ash, water, superplasticizer, coarse aggregate, and fine aggregate.

The actual concrete compressive strength (MPa) for a given mixture under a specific age (days) was determined from laboratory. Data is in raw form (not scaled).

Import the Data

concrete <- read_csv("C:/Queens Teaching/Teaching/STAT 362/08_datasets/concrete.csv")

concrete
## # A tibble: 1,030 x 9
##    cement  slag   ash water superplastic coarseagg fineagg   age strength
##     <dbl> <dbl> <dbl> <dbl>        <dbl>     <dbl>   <dbl> <dbl>    <dbl>
##  1   540     0      0   162          2.5     1040     676     28     80.0
##  2   540     0      0   162          2.5     1055     676     28     61.9
##  3   332.  142.     0   228          0        932     594    270     40.3
##  4   332.  142.     0   228          0        932     594    365     41.0
##  5   199.  132.     0   192          0        978.    826.   360     44.3
##  6   266   114      0   228          0        932     670     90     47.0
##  7   380    95      0   228          0        932     594    365     43.7
##  8   380    95      0   228          0        932     594     28     36.4
##  9   266   114      0   228          0        932     670     28     45.8
## 10   475     0      0   228          0        932     594     28     39.3
## # ... with 1,020 more rows
…
